simulation/qsim/projeto2_PSD.msim.vcd
$comment
	File created using the following command:
		vcd file projeto2_PSD.msim.vcd -direction
$end
$date
	Mon Nov 14 18:06:18 2022
$end
$version
	ModelSim Version 10.5b
$end
$timescale
	1ps
$end

$scope module elevador_vhd_vec_tst $end
$var wire 1 ! atual [3] $end
$var wire 1 " atual [2] $end
$var wire 1 # atual [1] $end
$var wire 1 $ atual [0] $end
$var wire 1 % clk $end
$var wire 1 & descendo $end
$var wire 1 ' input [3] $end
$var wire 1 ( input [2] $end
$var wire 1 ) input [1] $end
$var wire 1 * input [0] $end
$var wire 1 + parado $end
$var wire 1 , requisitado [3] $end
$var wire 1 - requisitado [2] $end
$var wire 1 . requisitado [1] $end
$var wire 1 / requisitado [0] $end
$var wire 1 0 reset $end
$var wire 1 1 subindo $end

$scope module i1 $end
$var wire 1 2 gnd $end
$var wire 1 3 vcc $end
$var wire 1 4 unknown $end
$var wire 1 5 devoe $end
$var wire 1 6 devclrn $end
$var wire 1 7 devpor $end
$var wire 1 8 ww_devoe $end
$var wire 1 9 ww_devclrn $end
$var wire 1 : ww_devpor $end
$var wire 1 ; ww_clk $end
$var wire 1 < ww_reset $end
$var wire 1 = ww_input [3] $end
$var wire 1 > ww_input [2] $end
$var wire 1 ? ww_input [1] $end
$var wire 1 @ ww_input [0] $end
$var wire 1 A ww_atual [3] $end
$var wire 1 B ww_atual [2] $end
$var wire 1 C ww_atual [1] $end
$var wire 1 D ww_atual [0] $end
$var wire 1 E ww_requisitado [3] $end
$var wire 1 F ww_requisitado [2] $end
$var wire 1 G ww_requisitado [1] $end
$var wire 1 H ww_requisitado [0] $end
$var wire 1 I ww_subindo $end
$var wire 1 J ww_parado $end
$var wire 1 K ww_descendo $end
$var wire 1 L \reset~inputclkctrl_INCLK_bus\ [3] $end
$var wire 1 M \reset~inputclkctrl_INCLK_bus\ [2] $end
$var wire 1 N \reset~inputclkctrl_INCLK_bus\ [1] $end
$var wire 1 O \reset~inputclkctrl_INCLK_bus\ [0] $end
$var wire 1 P \clk~inputclkctrl_INCLK_bus\ [3] $end
$var wire 1 Q \clk~inputclkctrl_INCLK_bus\ [2] $end
$var wire 1 R \clk~inputclkctrl_INCLK_bus\ [1] $end
$var wire 1 S \clk~inputclkctrl_INCLK_bus\ [0] $end
$var wire 1 T \atual[0]~output_o\ $end
$var wire 1 U \atual[1]~output_o\ $end
$var wire 1 V \atual[2]~output_o\ $end
$var wire 1 W \atual[3]~output_o\ $end
$var wire 1 X \requisitado[0]~output_o\ $end
$var wire 1 Y \requisitado[1]~output_o\ $end
$var wire 1 Z \requisitado[2]~output_o\ $end
$var wire 1 [ \requisitado[3]~output_o\ $end
$var wire 1 \ \subindo~output_o\ $end
$var wire 1 ] \parado~output_o\ $end
$var wire 1 ^ \descendo~output_o\ $end
$var wire 1 _ \reset~input_o\ $end
$var wire 1 ` \clk~input_o\ $end
$var wire 1 a \clk~inputclkctrl_outclk\ $end
$var wire 1 b \input[2]~input_o\ $end
$var wire 1 c \reset~inputclkctrl_outclk\ $end
$var wire 1 d \input[3]~input_o\ $end
$var wire 1 e \Selector6~0_combout\ $end
$var wire 1 f \input[0]~input_o\ $end
$var wire 1 g \input[1]~input_o\ $end
$var wire 1 h \Equal0~1_combout\ $end
$var wire 1 i \Selector5~0_combout\ $end
$var wire 1 j \LessThan1~0_combout\ $end
$var wire 1 k \LessThan1~1_combout\ $end
$var wire 1 l \c~0_combout\ $end
$var wire 1 m \andar_atual[3]~3_combout\ $end
$var wire 1 n \andar_atual[3]~2_combout\ $end
$var wire 1 o \Selector4~0_combout\ $end
$var wire 1 p \Selector4~1_combout\ $end
$var wire 1 q \LessThan0~0_combout\ $end
$var wire 1 r \LessThan0~1_combout\ $end
$var wire 1 s \LessThan0~2_combout\ $end
$var wire 1 t \Equal0~2_combout\ $end
$var wire 1 u \Selector0~0_combout\ $end
$var wire 1 v \Selector2~0_combout\ $end
$var wire 1 w \LessThan1~2_combout\ $end
$var wire 1 x \Selector2~1_combout\ $end
$var wire 1 y \Selector0~1_combout\ $end
$var wire 1 z \estado.S~q\ $end
$var wire 1 { \Selector2~4_combout\ $end
$var wire 1 | \Selector2~2_combout\ $end
$var wire 1 } \Selector2~5_combout\ $end
$var wire 1 ~ \estado.P~q\ $end
$var wire 1 !! \Equal0~0_combout\ $end
$var wire 1 "! \Selector2~3_combout\ $end
$var wire 1 #! \Selector1~0_combout\ $end
$var wire 1 $! \Selector1~1_combout\ $end
$var wire 1 %! \estado.D~q\ $end
$var wire 1 &! \Selector7~3_combout\ $end
$var wire 1 '! \Selector7~2_combout\ $end
$var wire 1 (! \atual~0_combout\ $end
$var wire 1 )! \atual~1_combout\ $end
$var wire 1 *! \atual~2_combout\ $end
$var wire 1 +! \atual~3_combout\ $end
$var wire 1 ,! \requisitado~0_combout\ $end
$var wire 1 -! \requisitado~1_combout\ $end
$var wire 1 .! \requisitado~2_combout\ $end
$var wire 1 /! \requisitado~3_combout\ $end
$var wire 1 0! \subindo~0_combout\ $end
$var wire 1 1! \subindo~1_combout\ $end
$var wire 1 2! \descendo~0_combout\ $end
$var wire 1 3! andar_requisitado [3] $end
$var wire 1 4! andar_requisitado [2] $end
$var wire 1 5! andar_requisitado [1] $end
$var wire 1 6! andar_requisitado [0] $end
$var wire 1 7! andar_atual [3] $end
$var wire 1 8! andar_atual [2] $end
$var wire 1 9! andar_atual [1] $end
$var wire 1 :! andar_atual [0] $end
$var wire 1 ;! \ALT_INV_reset~inputclkctrl_outclk\ $end
$var wire 1 <! \ALT_INV_subindo~1_combout\ $end
$var wire 1 =! \ALT_INV_subindo~0_combout\ $end
$var wire 1 >! \ALT_INV_estado.P~q\ $end
$upscope $end
$upscope $end
$enddefinitions $end
#0
$dumpvars
0%
0&
1+
10
01
02
13
x4
15
16
17
18
19
1:
0;
1<
0I
1J
0K
0T
0U
0V
0W
0X
0Y
0Z
0[
0\
1]
0^
1_
0`
0a
0b
1c
1d
0e
0f
0g
1h
0i
0j
0k
1l
1m
0n
1o
0p
0q
0r
0s
1t
0u
1v
0w
0x
0y
0z
0{
0|
0}
0~
1!!
0"!
0#!
0$!
0%!
0&!
0'!
0(!
0)!
0*!
0+!
0,!
0-!
0.!
0/!
10!
01!
02!
0;!
1<!
0=!
1>!
1'
0(
0)
0*
1=
0>
0?
0@
0A
0B
0C
0D
0E
0F
0G
0H
03!
04!
05!
06!
07!
08!
09!
0:!
1P
1Q
1R
0S
1L
1M
1N
1O
0!
0"
0#
0$
0,
0-
0.
0/
$end
#100
00
0<
0_
0O
0c
1;!
#500
1%
1;
1`
1S
1a
13!
1j
0!!
1/!
0t
1w
1x
1[
1y
1|
1E
1,
1}
#1000
0%
0;
0`
0S
0a
#1500
1%
1;
1`
1S
1a
1z
1~
0>!
0v
1&!
00!
11!
0m
0<!
1=!
1n
1'!
0x
0|
1\
0]
1I
0J
11
0+
#2000
0%
0;
0`
0S
0a
#2500
1%
1;
1`
1S
1a
1:!
1e
0h
1r
0'!
1(!
1T
1D
1$
#3000
0%
0;
0`
0S
0a
#3500
1%
1;
1`
1S
1a
19!
0:!
1'!
0(!
1)!
1U
0T
1C
0D
0$
1#
#4000
0%
0;
0`
0S
0a
#4500
1%
1;
1`
1S
1a
1:!
0e
1i
0'!
1(!
1T
1D
1$
#5000
0%
1*
0;
1@
1f
0`
0S
0a
#5500
1%
1;
1`
1S
1a
18!
09!
0:!
1'!
0(!
1h
0r
0)!
1*!
1V
0U
0T
1B
0C
0D
0$
0#
1"
#6000
0%
0;
0`
0S
0a
#6500
1%
1;
1`
1S
1a
1:!
1e
0h
1r
0'!
1(!
1T
1D
1$
#7000
0%
0;
0`
0S
0a
#7500
1%
1;
1`
1S
1a
19!
0:!
1'!
0(!
1)!
1U
0T
1C
0D
0$
1#
#8000
0%
0;
0`
0S
0a
#8500
1%
1;
1`
1S
1a
1:!
0e
0i
0o
0'!
1(!
1p
1T
1D
1$
#9000
0%
0;
0`
0S
0a
#9500
1%
1;
1`
1S
1a
08!
09!
17!
0:!
1'!
0(!
0p
1+!
1h
0r
0)!
0j
1o
1!!
0*!
1p
0w
1m
1t
1{
0&!
0'!
1u
0n
0V
0U
1W
0T
0y
1|
0B
0C
1A
0D
0$
0#
0"
1!
0}
#10000
0%
0*
1)
0;
0@
1?
1g
0f
0`
0S
0a
#10500
1%
1;
1`
1S
1a
0z
0~
1>!
1v
10!
01!
0u
0{
1<!
0=!
1}
0|
0}
0\
1]
0I
1J
01
1+
#11000
0%
0;
0`
0S
0a
#11500
1%
1;
1`
1S
1a
15!
0h
1k
1-!
1w
0t
1x
1Y
1y
1|
1G
1.
1}
#12000
0%
0;
0`
0S
0a
#12500
1%
1;
1`
1S
1a
1z
1~
0>!
0v
1&!
00!
11!
0m
0<!
1=!
1n
1'!
0x
0|
1\
0]
1I
0J
11
0+
#13000
0%
0;
0`
0S
0a
#13500
1%
1;
1`
1S
1a
1:!
1e
0'!
1(!
1T
1D
1$
#14000
0%
0;
0`
0S
0a
#14500
1%
1;
1`
1S
1a
19!
0:!
1'!
0(!
1h
0k
1)!
0w
1m
1t
1{
0&!
0'!
1u
0n
1U
0T
0y
1|
1C
0D
0$
1#
0}
#15000
0%
1*
0;
1@
1f
0`
0S
0a
#15500
1%
1;
1`
1S
1a
0z
0~
1>!
1v
10!
01!
0u
0{
1<!
0=!
1}
0|
0}
0\
1]
0I
1J
01
1+
#16000
0%
0;
0`
0S
0a
#16500
1%
1;
1`
1S
1a
16!
0h
1k
1,!
1w
0t
1x
1X
1y
1|
1H
1/
1}
#17000
0%
0;
0`
0S
0a
#17500
1%
1;
1`
1S
1a
1z
1~
0>!
0v
1&!
00!
11!
0m
0<!
1=!
1n
1'!
0x
0|
1\
0]
1I
0J
11
0+
#18000
0%
0;
0`
0S
0a
#18500
1%
1;
1`
1S
1a
1:!
0e
1h
1i
0k
0'!
1(!
0w
1m
1t
1{
0&!
1'!
1u
0n
1T
0y
1|
1D
1$
0}
#19000
0%
0;
0`
0S
0a
#19500
1%
1;
1`
1S
1a
0z
0~
1>!
1v
10!
01!
0u
0{
1<!
0=!
1}
0|
0}
0\
1]
0I
1J
01
1+
#20000
0%
0*
0)
1(
0;
0@
0?
1>
1b
0g
0f
0`
0S
0a
#20500
1%
1;
1`
1S
1a
06!
05!
14!
1j
0!!
1.!
0-!
0h
1r
0,!
0t
1w
1x
0X
0Y
1Z
1y
1|
0H
0G
1F
0/
0.
1-
1}
#21000
0%
0;
0`
0S
0a
#21500
1%
1;
1`
1S
1a
1z
1~
0>!
0v
1&!
00!
11!
0m
0<!
1=!
1n
0'!
0x
0|
1\
0]
1I
0J
11
0+
#22000
0%
0;
0`
0S
0a
#22500
1%
1;
1`
1S
1a
18!
09!
0:!
1'!
0(!
1h
0r
0)!
0j
1!!
1*!
0w
1m
1t
1{
0&!
0'!
1u
0n
1V
0U
0T
0y
1|
1B
0C
0D
0$
0#
1"
0}
#23000
0%
0;
0`
0S
0a
#23500
1%
1;
1`
1S
1a
0z
0~
1>!
1v
10!
01!
0u
0{
1<!
0=!
1}
0|
0}
0\
1]
0I
1J
01
1+
#24000
0%
0;
0`
0S
0a
#24500
1%
1;
1`
1S
1a
#25000
0%
1*
0;
1@
1f
0`
0S
0a
#25500
1%
1;
1`
1S
1a
16!
0h
1k
1,!
1w
0t
1x
1X
1y
1|
1H
1/
1}
#26000
0%
0;
0`
0S
0a
#26500
1%
1;
1`
1S
1a
1z
1~
0>!
0v
1&!
00!
11!
0m
0<!
1=!
1n
1'!
0x
0|
1\
0]
1I
0J
11
0+
#27000
0%
0;
0`
0S
0a
#27500
1%
1;
1`
1S
1a
1:!
1e
1h
0k
0'!
1(!
0w
1m
1t
1{
0&!
1'!
1u
0n
1T
0y
1|
1D
1$
0}
#28000
0%
0;
0`
0S
0a
#28500
1%
1;
1`
1S
1a
0z
0~
1>!
1v
10!
01!
0u
0{
1<!
0=!
1}
0|
0}
0\
1]
0I
1J
01
1+
#29000
0%
0;
0`
0S
0a
#29500
1%
1;
1`
1S
1a
#30000
0%
0*
1)
0;
0@
1?
1g
0f
0`
0S
0a
#30500
1%
1;
1`
1S
1a
06!
15!
1-!
0h
1k
0,!
1w
0t
1x
0X
1Y
1y
1|
0H
1G
0/
1.
1}
#31000
0%
0;
0`
0S
0a
#31500
1%
1;
1`
1S
1a
1z
1~
0>!
0v
1&!
00!
11!
0m
0<!
1=!
1n
0'!
0x
0|
1\
0]
1I
0J
11
0+
#32000
0%
0;
0`
0S
0a
#32500
1%
1;
1`
1S
1a
19!
0:!
1'!
0(!
1h
0k
1)!
0w
1m
1t
1{
0&!
0'!
1u
0n
1U
0T
0y
1|
1C
0D
0$
1#
0}
#33000
0%
0;
0`
0S
0a
#33500
1%
1;
1`
1S
1a
0z
0~
1>!
1v
10!
01!
0u
0{
1<!
0=!
1}
0|
0}
0\
1]
0I
1J
01
1+
#34000
0%
0;
0`
0S
0a
#34500
1%
1;
1`
1S
1a
#35000
0%
1*
0;
1@
1f
0`
0S
0a
#35500
1%
1;
1`
1S
1a
16!
0h
1k
1,!
1w
0t
1x
1X
1y
1|
1H
1/
1}
#36000
0%
0;
0`
0S
0a
#36500
1%
1;
1`
1S
1a
1z
1~
0>!
0v
1&!
00!
11!
0m
0<!
1=!
1n
1'!
0x
0|
1\
0]
1I
0J
11
0+
#37000
0%
0;
0`
0S
0a
#37500
1%
1;
1`
1S
1a
1:!
0e
1h
0i
0k
0o
0'!
1(!
0p
0w
1m
1t
1{
0&!
1'!
1u
0n
1T
0y
1|
1D
1$
0}
#38000
0%
0;
0`
0S
0a
#38500
1%
1;
1`
1S
1a
0z
0~
1>!
1v
10!
01!
0u
0{
1<!
0=!
1}
0|
0}
0\
1]
0I
1J
01
1+
#39000
0%
0;
0`
0S
0a
#39500
1%
1;
1`
1S
1a
#40000
0%
0*
0)
0(
0'
0;
0@
0?
0>
0=
0d
0b
0g
0f
0`
0S
0a
#40500
1%
1;
1`
1S
1a
03!
06!
05!
04!
0.!
0-!
0h
1r
0,!
1q
0!!
0/!
1s
0v
0l
0t
1u
1#!
0[
0X
0Y
0Z
1|
0E
0H
0G
0F
0/
0.
0-
0,
1}
1$!
#41000
0%
0;
0`
0S
0a
#41500
1%
1;
1`
1S
1a
1~
1%!
0>!
1e
1i
1n
1o
0'!
0u
0#!
11!
12!
0<!
0$!
0|
1p
1$!
1^
0]
1K
0J
1&
0+
#42000
0%
0;
0`
0S
0a
#42500
1%
1;
1`
1S
1a
0:!
0e
1'!
0(!
0T
0D
0$
#43000
0%
0;
0`
0S
0a
#43500
1%
1;
1`
1S
1a
09!
1:!
0'!
1(!
0)!
0U
1T
0C
1D
1$
0#
#44000
0%
0;
0`
0S
0a
#44500
1%
1;
1`
1S
1a
0:!
1e
1h
0i
0r
1'!
0(!
0T
0D
0$
#45000
0%
1*
0;
1@
1f
0`
0S
0a
#45500
1%
1;
1`
1S
1a
08!
19!
1:!
0'!
1(!
0h
1r
1)!
0*!
0V
1U
1T
0B
1C
1D
1$
1#
0"
#46000
0%
0;
0`
0S
0a
#46500
1%
1;
1`
1S
1a
0:!
0e
1'!
0(!
0T
0D
0$
#47000
0%
0;
0`
0S
0a
#47500
1%
1;
1`
1S
1a
09!
1:!
0'!
1(!
0)!
0U
1T
0C
1D
1$
0#
#48000
0%
0;
0`
0S
0a
#48500
1%
1;
1`
1S
1a
0:!
1e
1h
1i
0o
0r
1'!
0(!
0p
0T
0D
0$
#49000
0%
0;
0`
0S
0a
#49500
1%
1;
1`
1S
1a
18!
19!
07!
1:!
0'!
1(!
1p
0+!
0h
1r
1)!
1o
1*!
0p
1V
1U
0W
1T
1B
1C
0A
1D
1$
1#
1"
0!
#50000
0%
0*
1)
0;
0@
1?
1g
0f
0`
0S
0a
#50500
1%
1;
1`
1S
1a
0:!
0e
1'!
0(!
0T
0D
0$
#51000
0%
0;
0`
0S
0a
#51500
1%
1;
1`
1S
1a
09!
1:!
0'!
1(!
0)!
0U
1T
0C
1D
1$
0#
#52000
0%
0;
0`
0S
0a
#52500
1%
1;
1`
1S
1a
0:!
1e
1h
0i
0r
1'!
0(!
0T
0D
0$
#53000
0%
0;
0`
0S
0a
#53500
1%
1;
1`
1S
1a
08!
19!
1:!
0'!
1(!
0h
1r
1)!
0q
1!!
0*!
0V
1U
1T
0B
1C
1D
1$
1#
0"
#54000
0%
0;
0`
0S
0a
#54500
1%
1;
1`
1S
1a
0:!
0e
1'!
0(!
0T
0D
0$
#55000
0%
1*
0;
1@
1f
0`
0S
0a
#55500
1%
1;
1`
1S
1a
09!
1:!
0'!
1(!
0)!
0U
1T
0C
1D
1$
0#
#56000
0%
0;
0`
0S
0a
#56500
1%
1;
1`
1S
1a
0:!
1e
1h
1i
0o
0r
1'!
0(!
0s
1p
1l
1t
1"!
1x
0n
0'!
0T
1|
0D
0$
0}
0$!
#57000
0%
0;
0`
0S
0a
#57500
1%
1;
1`
1S
1a
0~
0%!
1>!
0e
0i
1o
0x
0"!
1v
01!
02!
1<!
1}
0|
0p
0}
0^
1]
0K
1J
0&
1+
#58000
0%
0;
0`
0S
0a
#58500
1%
1;
1`
1S
1a
16!
15!
1-!
0h
1k
1,!
1w
0t
1x
1X
1Y
1y
1|
1H
1G
1/
1.
1}
#59000
0%
0;
0`
0S
0a
#59500
1%
1;
1`
1S
1a
1z
1~
0>!
0v
1&!
00!
11!
0m
0<!
1=!
1n
1'!
0x
0|
1\
0]
1I
0J
11
0+
#60000
0%
0*
0)
1(
0;
0@
0?
1>
1b
0g
0f
0`
0S
0a
#60500
1%
1;
1`
1S
1a
1:!
1e
0'!
1(!
1T
1D
1$
#61000
0%
0;
0`
0S
0a
#61500
1%
1;
1`
1S
1a
19!
0:!
1'!
0(!
1)!
1U
0T
1C
0D
0$
1#
#62000
0%
0;
0`
0S
0a
#62500
1%
1;
1`
1S
1a
1:!
0e
1h
1i
0k
0'!
1(!
0w
1m
1t
1{
0&!
1'!
1u
0n
1T
0y
1|
1D
1$
0}
#63000
0%
0;
0`
0S
0a
#63500
1%
1;
1`
1S
1a
0z
0~
1>!
1v
10!
01!
0u
0{
1<!
0=!
1}
0|
0}
0\
1]
0I
1J
01
1+
#64000
0%
0;
0`
0S
0a
#64500
1%
1;
1`
1S
1a
06!
05!
14!
1j
0!!
1.!
0-!
0h
1r
0,!
0t
1w
1x
0X
0Y
1Z
1y
1|
0H
0G
1F
0/
0.
1-
1}
#65000
0%
1*
0;
1@
1f
0`
0S
0a
#65500
1%
1;
1`
1S
1a
16!
1z
1~
0>!
0v
1&!
00!
11!
0m
1,!
0<!
1=!
1n
0'!
0x
0|
1X
1\
0]
1H
1I
0J
1/
11
0+
#66000
0%
0;
0`
0S
0a
#66500
1%
1;
1`
1S
1a
18!
09!
0:!
1'!
0(!
1k
0r
0)!
0j
1!!
1*!
1V
0U
0T
1B
0C
0D
0$
0#
1"
#67000
0%
0;
0`
0S
0a
#67500
1%
1;
1`
1S
1a
1:!
1e
1h
0k
0'!
1(!
0w
1m
1t
1{
0&!
1'!
1u
0n
1T
0y
1|
1D
1$
0}
#68000
0%
0;
0`
0S
0a
#68500
1%
1;
1`
1S
1a
0z
0~
1>!
1v
10!
01!
0u
0{
1<!
0=!
1}
0|
0}
0\
1]
0I
1J
01
1+
#69000
0%
0;
0`
0S
0a
#69500
1%
1;
1`
1S
1a
#70000
0%
0*
1)
0;
0@
1?
1g
0f
0`
0S
0a
#70500
1%
1;
1`
1S
1a
06!
15!
1-!
0h
1k
0,!
1w
0t
1x
0X
1Y
1y
1|
0H
1G
0/
1.
1}
#71000
0%
0;
0`
0S
0a
#71500
1%
1;
1`
1S
1a
1z
1~
0>!
0v
1&!
00!
11!
0m
0<!
1=!
1n
0'!
0x
0|
1\
0]
1I
0J
11
0+
#72000
0%
0;
0`
0S
0a
#72500
1%
1;
1`
1S
1a
19!
0:!
1'!
0(!
1h
0k
1)!
0w
1m
1t
1{
0&!
0'!
1u
0n
1U
0T
0y
1|
1C
0D
0$
1#
0}
#73000
0%
0;
0`
0S
0a
#73500
1%
1;
1`
1S
1a
0z
0~
1>!
1v
10!
01!
0u
0{
1<!
0=!
1}
0|
0}
0\
1]
0I
1J
01
1+
#74000
0%
0;
0`
0S
0a
#74500
1%
1;
1`
1S
1a
#75000
0%
1*
0;
1@
1f
0`
0S
0a
#75500
1%
1;
1`
1S
1a
16!
0h
1k
1,!
1w
0t
1x
1X
1y
1|
1H
1/
1}
#76000
0%
0;
0`
0S
0a
#76500
1%
1;
1`
1S
1a
1z
1~
0>!
0v
1&!
00!
11!
0m
0<!
1=!
1n
1'!
0x
0|
1\
0]
1I
0J
11
0+
#77000
0%
0;
0`
0S
0a
#77500
1%
1;
1`
1S
1a
1:!
0e
1h
0i
0k
0o
0'!
1(!
1p
0w
1m
1t
1{
0&!
1'!
1u
0n
1T
0y
1|
1D
1$
0}
#78000
0%
0;
0`
0S
0a
#78500
1%
1;
1`
1S
1a
0z
0~
1>!
1v
10!
01!
0u
0{
1<!
0=!
1}
0|
0}
0\
1]
0I
1J
01
1+
#79000
0%
0;
0`
0S
0a
#79500
1%
1;
1`
1S
1a
#80000
0%
0*
0)
0(
1'
0;
0@
0?
0>
1=
1d
0b
0g
0f
0`
0S
0a
#80500
1%
1;
1`
1S
1a
13!
06!
05!
04!
0.!
0-!
0h
1r
0,!
1j
0!!
1/!
1w
0t
1x
1[
0X
0Y
0Z
1y
1|
1E
0H
0G
0F
0/
0.
0-
1,
1}
#81000
0%
0;
0`
0S
0a
#81500
1%
1;
1`
1S
1a
1z
1~
0>!
0v
1&!
00!
11!
0m
0<!
1=!
1n
0'!
0x
0|
1\
0]
1I
0J
11
0+
#82000
0%
0;
0`
0S
0a
#82500
1%
1;
1`
1S
1a
08!
09!
17!
0:!
1'!
0(!
0p
1+!
1h
0r
0)!
0j
1o
1!!
0*!
1p
0w
1m
1t
1{
0&!
0'!
1u
0n
0V
0U
1W
0T
0y
1|
0B
0C
1A
0D
0$
0#
0"
1!
0}
#83000
0%
0;
0`
0S
0a
#83500
1%
1;
1`
1S
1a
0z
0~
1>!
1v
10!
01!
0u
0{
1<!
0=!
1}
0|
0}
0\
1]
0I
1J
01
1+
#84000
0%
0;
0`
0S
0a
#84500
1%
1;
1`
1S
1a
#85000
0%
1*
0;
1@
1f
0`
0S
0a
#85500
1%
1;
1`
1S
1a
16!
0h
1k
1,!
1w
0t
1x
1X
1y
1|
1H
1/
1}
#86000
0%
0;
0`
0S
0a
#86500
1%
1;
1`
1S
1a
1z
1~
0>!
0v
1&!
00!
11!
0m
0<!
1=!
1n
1'!
0x
0|
1\
0]
1I
0J
11
0+
#87000
0%
0;
0`
0S
0a
#87500
1%
1;
1`
1S
1a
1:!
1e
1h
0k
0'!
1(!
0w
1m
1t
1{
0&!
1'!
1u
0n
1T
0y
1|
1D
1$
0}
#88000
0%
0;
0`
0S
0a
#88500
1%
1;
1`
1S
1a
0z
0~
1>!
1v
10!
01!
0u
0{
1<!
0=!
1}
0|
0}
0\
1]
0I
1J
01
1+
#89000
0%
0;
0`
0S
0a
#89500
1%
1;
1`
1S
1a
#90000
0%
0*
1)
0;
0@
1?
1g
0f
0`
0S
0a
#90500
1%
1;
1`
1S
1a
06!
15!
1-!
0h
1k
0,!
1w
0t
1x
0X
1Y
1y
1|
0H
1G
0/
1.
1}
#91000
0%
0;
0`
0S
0a
#91500
1%
1;
1`
1S
1a
1z
1~
0>!
0v
1&!
00!
11!
0m
0<!
1=!
1n
0'!
0x
0|
1\
0]
1I
0J
11
0+
#92000
0%
0;
0`
0S
0a
#92500
1%
1;
1`
1S
1a
19!
0:!
1'!
0(!
1h
0k
1)!
0w
1m
1t
1{
0&!
0'!
1u
0n
1U
0T
0y
1|
1C
0D
0$
1#
0}
#93000
0%
0;
0`
0S
0a
#93500
1%
1;
1`
1S
1a
0z
0~
1>!
1v
10!
01!
0u
0{
1<!
0=!
1}
0|
0}
0\
1]
0I
1J
01
1+
#94000
0%
0;
0`
0S
0a
#94500
1%
1;
1`
1S
1a
#95000
0%
1*
0;
1@
1f
0`
0S
0a
#95500
1%
1;
1`
1S
1a
16!
0h
1k
1,!
1w
0t
1x
1X
1y
1|
1H
1/
1}
#96000
0%
0;
0`
0S
0a
#96500
1%
1;
1`
1S
1a
1z
1~
0>!
0v
1&!
00!
11!
0m
0<!
1=!
1n
1'!
0x
0|
1\
0]
1I
0J
11
0+
#97000
0%
0;
0`
0S
0a
#97500
1%
1;
1`
1S
1a
1:!
0e
1h
1i
0k
0'!
1(!
0w
1m
1t
1{
0&!
1'!
1u
0n
1T
0y
1|
1D
1$
0}
#98000
0%
0;
0`
0S
0a
#98500
1%
1;
1`
1S
1a
0z
0~
1>!
1v
10!
01!
0u
0{
1<!
0=!
1}
0|
0}
0\
1]
0I
1J
01
1+
#99000
0%
0;
0`
0S
0a
#99500
1%
1;
1`
1S
1a
#100000
0%
0*
0)
1(
0;
0@
0?
1>
1b
0g
0f
0`
0S
0a
#100500
1%
1;
1`
1S
1a
06!
05!
14!
1j
0!!
1.!
0-!
0h
1r
0,!
0t
1w
1x
0X
0Y
1Z
1y
1|
0H
0G
1F
0/
0.
1-
1}
#101000
0%
0;
0`
0S
0a
#101500
1%
1;
1`
1S
1a
1z
1~
0>!
0v
1&!
00!
11!
0m
0<!
1=!
1n
0'!
0x
0|
1\
0]
1I
0J
11
0+
#102000
0%
0;
0`
0S
0a
#102500
1%
1;
1`
1S
1a
18!
09!
0:!
1'!
0(!
1h
0r
0)!
0j
1!!
1*!
0w
1m
1t
1{
0&!
0'!
1u
0n
1V
0U
0T
0y
1|
1B
0C
0D
0$
0#
1"
0}
#103000
0%
0;
0`
0S
0a
#103500
1%
1;
1`
1S
1a
0z
0~
1>!
1v
10!
01!
0u
0{
1<!
0=!
1}
0|
0}
0\
1]
0I
1J
01
1+
#104000
0%
0;
0`
0S
0a
#104500
1%
1;
1`
1S
1a
#105000
0%
1*
0;
1@
1f
0`
0S
0a
#105500
1%
1;
1`
1S
1a
16!
0h
1k
1,!
1w
0t
1x
1X
1y
1|
1H
1/
1}
#106000
0%
0;
0`
0S
0a
#106500
1%
1;
1`
1S
1a
1z
1~
0>!
0v
1&!
00!
11!
0m
0<!
1=!
1n
1'!
0x
0|
1\
0]
1I
0J
11
0+
#107000
0%
0;
0`
0S
0a
#107500
1%
1;
1`
1S
1a
1:!
1e
1h
0k
0'!
1(!
0w
1m
1t
1{
0&!
1'!
1u
0n
1T
0y
1|
1D
1$
0}
#108000
0%
0;
0`
0S
0a
#108500
1%
1;
1`
1S
1a
0z
0~
1>!
1v
10!
01!
0u
0{
1<!
0=!
1}
0|
0}
0\
1]
0I
1J
01
1+
#109000
0%
0;
0`
0S
0a
#109500
1%
1;
1`
1S
1a
#110000
0%
0*
1)
0;
0@
1?
1g
0f
0`
0S
0a
#110500
1%
1;
1`
1S
1a
06!
15!
1-!
0h
1k
0,!
1w
0t
1x
0X
1Y
1y
1|
0H
1G
0/
1.
1}
#111000
0%
0;
0`
0S
0a
#111500
1%
1;
1`
1S
1a
1z
1~
0>!
0v
1&!
00!
11!
0m
0<!
1=!
1n
0'!
0x
0|
1\
0]
1I
0J
11
0+
#112000
0%
0;
0`
0S
0a
#112500
1%
1;
1`
1S
1a
19!
0:!
1'!
0(!
1h
0k
1)!
0w
1m
1t
1{
0&!
0'!
1u
0n
1U
0T
0y
1|
1C
0D
0$
1#
0}
#113000
0%
0;
0`
0S
0a
#113500
1%
1;
1`
1S
1a
0z
0~
1>!
1v
10!
01!
0u
0{
1<!
0=!
1}
0|
0}
0\
1]
0I
1J
01
1+
#114000
0%
0;
0`
0S
0a
#114500
1%
1;
1`
1S
1a
#115000
0%
1*
0;
1@
1f
0`
0S
0a
#115500
1%
1;
1`
1S
1a
16!
0h
1k
1,!
1w
0t
1x
1X
1y
1|
1H
1/
1}
#116000
0%
0;
0`
0S
0a
#116500
1%
1;
1`
1S
1a
1z
1~
0>!
0v
1&!
00!
11!
0m
0<!
1=!
1n
1'!
0x
0|
1\
0]
1I
0J
11
0+
#117000
0%
0;
0`
0S
0a
#117500
1%
1;
1`
1S
1a
1:!
0e
1h
0i
0k
0o
0'!
1(!
0p
0w
1m
1t
1{
0&!
1'!
1u
0n
1T
0y
1|
1D
1$
0}
#118000
0%
0;
0`
0S
0a
#118500
1%
1;
1`
1S
1a
0z
0~
1>!
1v
10!
01!
0u
0{
1<!
0=!
1}
0|
0}
0\
1]
0I
1J
01
1+
#119000
0%
0;
0`
0S
0a
#119500
1%
1;
1`
1S
1a
#120000
0%
0*
0)
0(
0'
0;
0@
0?
0>
0=
0d
0b
0g
0f
0`
0S
0a
#120500
1%
1;
1`
1S
1a
03!
06!
05!
04!
0.!
0-!
0h
1r
0,!
1q
0!!
0/!
1s
0v
0l
0t
1u
1#!
0[
0X
0Y
0Z
1|
0E
0H
0G
0F
0/
0.
0-
0,
1}
1$!
#121000
0%
0;
0`
0S
0a
#121500
1%
1;
1`
1S
1a
1~
1%!
0>!
1e
1i
1n
1o
0'!
0u
0#!
11!
12!
0<!
0$!
0|
1p
1$!
1^
0]
1K
0J
1&
0+
#122000
0%
0;
0`
0S
0a
#122500
1%
1;
1`
1S
1a
0:!
0e
1'!
0(!
0T
0D
0$
#123000
0%
0;
0`
0S
0a
#123500
1%
1;
1`
1S
1a
09!
1:!
0'!
1(!
0)!
0U
1T
0C
1D
1$
0#
#124000
0%
0;
0`
0S
0a
#124500
1%
1;
1`
1S
1a
0:!
1e
1h
0i
0r
1'!
0(!
0T
0D
0$
#125000
0%
1*
0;
1@
1f
0`
0S
0a
